…
```r
attrates_long <- attrates %>% 
  pivot_longer(
    3:6,
    names_to="attendance_statistic",
    values_to="value"
  )
attrates_long
```

```
## # A tibble: 40 x 4
##    year  month attendance_statistic    value
##    <fct> <fct> <chr>                   <dbl>
##  1 2019  1     attendance_rate_percent  96.0
##  2 2019  1     student_add              22  
##  3 2019  1     student_drop             12  
##  4 2019  1     number_of_students      973  
##  5 2019  2     attendance_rate_percent  96.4
##  6 2019  2     student_add               8  
##  7 2019  2     student_drop             22  
##  8 2019  2     number_of_students      969  
##  9 2019  3     attendance_rate_percent  95  
## 10 2019  3     student_add              15  
## # ... with 30 more rows
```
…
```r
attcodes<- attreason%>%
  pivot_longer(-year, names_to = "att_code", values_to = "occurence")
attcodes$year<- as.factor(attcodes$year)
attcodes
```

```
## # A tibble: 24 x 3
##    year  att_code occurence
##    <fct> <chr>        <dbl>
##  1 2020  DR             243
##  2 2020  ILL            246
##  3 2020  EXC            970
##  4 2020  UNV              0
##  5 2020  VUN             63
##  6 2020  OTH            457
##  7 2020  AVP          73543
##  8 2020  ILL19          588
##  9 2020  NWFA          1625
## 10 2020  DAC             99
## # ... with 14 more rows
```
…
```r
codesmonth<- janitor::clean_names(codesmonth)
codesmonth$month <- as.factor(codesmonth$month)
codesmonth$year <- as.factor(codesmonth$year)
codesmonth
```

```
## # A tibble: 110 x 4
##    year  month code   used
##    <fct> <fct> <chr> <dbl>
##  1 2019  1     DR      639
##  2 2019  1     ILL    1231
##  3 2019  1     EXC     290
##  4 2019  1     UNV    1839
##  5 2019  1     VUN     473
##  6 2019  1     OTH     459
##  7 2019  1     AVP       0
##  8 2019  1     ILL19     0
##  9 2019  1     NWFA      0
## 10 2019  1     DAC       0
## # ... with 100 more rows
```
…
